SDS 264 HW3
…
potter_bigram <- potter_untidy |>
  unnest_tokens(bigram, text, token = "ngrams", n = 2) |>
  filter(bigram != "NA")

potter_bigram_filtered <- potter_bigram |>
  separate(bigram, c("word1", "word2"), sep = " ") |>
  filter(!word1 %in% stop_words$word,
         !word2 %in% stop_words$word) |>
  count(word1, word2, sort = TRUE) |>
  unite(bigram, word1, word2, sep = " ")

potter_bigram_filtered

# A tibble: 89,258 × 2
   bigram                   n
   <chr>                <int>
 1 professor mcgonagall   578
 2 uncle vernon           386
 3 harry potter           349
 4 death eaters           346
 5 harry looked           316
 6 harry ron              302
 7 aunt petunia           206
 8 invisibility cloak     192
 9 professor trelawney    177
10 dark arts              176
# ℹ 89,248 more rows
…
Select a set of 4 “interesting” terms and then use the Phi coefficient to find and plot the 6 words most correlated with each of your “interesting” words. Start by dividing potter_tidy into 80-word sections and then remove names and spells and stop words.

potter_section <- potter_tidy |>
  mutate(section = 1 + row_number() %/% 80) |>
  filter(!word %in% stop_words$word,
         !word %in% potter_names$firstname,
         !word %in% potter_names$lastname,
         !word %in% potter_spells$first_word,
         !word %in% potter_spells$second_word,
         !is.na(word))

potter_section |>
  pairwise_count(word, section, sort = TRUE)

# A tibble: 5,339,950 × 3
   item1     item2         n
   <chr>     <chr>     <dbl>
 1 eaters    death       301
 2 death     eaters      301
 3 looked    eyes        295
 4 eyes      looked      295
 5 looked    time        241
 6 time      looked      241
 7 harry's   looked      227
 8 looked    harry's     227
 9 professor looked      224
10 looked    professor   224
# ℹ 5,339,940 more rows
…
# set a seed so that the output of the model is predictable
potter_lda <- LDA(potter_dtm, k = 2, control = list(seed = 1234))

potter_topics <- tidy(potter_lda, matrix = "beta")
potter_topics

# A tibble: 46,898 × 3
   topic term        beta
   <int> <chr>      <dbl>
 1     1 0     0.0000150 
 2     2 0     0.0000248 
 3     1 1     0.000241  
 4     2 1     0.000276  
 5     1 1473  0.00000409
 6     2 1473  0.00000183
 7     1 1637  0.00000202
 8     2 1637  0.00000365
 9     1 17    0.00000285
10     2 17    0.00000834
# ℹ 46,888 more rows
…
# Find words with greatest difference between two topics, using log ratio
potter_beta_wide <- potter_topics |>
  mutate(topic = paste0("topic", topic)) |>
  pivot_wider(names_from = topic, values_from = beta) |> 
  filter(topic1 > .001 | topic2 > .001) |>
  mutate(log_ratio = log2(topic2 / topic1))

potter_beta_wide

# A tibble: 200 × 4
   term       topic1    topic2 log_ratio
   <chr>       <dbl>     <dbl>     <dbl>
 1 air      0.00165  0.00149      -0.150
 2 answer   0.000295 0.00108       1.87 
 3 appeared 0.000490 0.00121       1.31 
 4 arm      0.00170  0.000407     -2.06 
 5 aunt     0.00199  0.0000977    -4.35 
 6 bed      0.000836 0.00187       1.16 
 7 bit      0.00111  0.00204       0.882
 8 boy      0.000513 0.00237       2.20 
 9 burst    0.00102  0.000266     -1.94 
10 called   0.000422 0.00173       2.04 
# ℹ 190 more rows
…
