Functions and tidy evaluation
…
The error above can be solved by using the pick() function, which uses tidy selection inside of data masking:

count_missing <- function(df, group_vars, x_var) {
  df |> 
    group_by(pick({{ group_vars }})) |> 
    summarize(
      n_miss = sum(is.na({{ x_var }})),
      .groups = "drop"
  )
}

flights |> 
  count_missing(c(year, month, day), dep_time)

# A tibble: 365 × 4
    year month   day n_miss
   <int> <int> <int>  <int>
 1  2013     1     1      4
 2  2013     1     2      8
 3  2013     1     3     10
 4  2013     1     4      6
 5  2013     1     5      3
 6  2013     1     6      1
 7  2013     1     7      3
 8  2013     1     8      4
 9  2013     1     9      5
10  2013     1    10      3
# ℹ 355 more rows
…
