…
Refer to [Section 15.5](https://mdsr-book.github.io/mdsr3e/15-sqlI.html#sec-ft8-flights) in MDSR, where they attempt to replicate some of FiveThirtyEight's analyses.  The MDSR authors provide a mix of SQL and R code to perform their analyses, but the code will not work if you simply cut-and-paste as-is into R.  Your task is to convert the book code into something that actually runs, and then *apply it to data from 2024*.  Very little of the code needs to be adjusted; it mostly needs to be repackaged.

Hints:

- use `dbGetQuery()`
- note that what they call `carrier` is just called `Reporting_Airline` in the `flightdata` table; you don't have to merge in a `carrier` table, although it's unfortunate that the `Reporting_Airline` codes are a bit cryptic


1. Below Figure 15.1, the MDSR authors first describe how to plot slowest and fastest airports.  Instead of using *target time*, which has a complex definition, we will use *arrival time*, which oversimplifies the situation but gets us in the ballpark.  Duplicate the equivalent of the table below for 2024 using the code in MDSR:

```{r}
#| eval: FALSE

# A tibble: 30 × 3
   dest  avgDepartDelay avgArrivalDelay
   <chr>          <dbl>           <dbl>
 1 ORD            14.3            13.1 
 2 MDW            12.8             7.40
 3 DEN            11.3             7.60
 4 IAD            11.3             7.45
 5 HOU            11.3             8.07
 6 DFW            10.7             9.00
 7 BWI            10.2             6.04
 8 BNA             9.47            8.94
 9 EWR             8.70            9.61
10 IAH             8.41            6.75
# 20 more rows
```
…
